{
  "$schema": "https://unpkg.com/@changesets/config@1.6.0/schema.json",
  "changelog": [
    "@changesets/changelog-github",
    {
      "repo": "rx-ts/react"
    }
  ],
  "commit": false,
  "linked": [],
  "access": "restricted",
  "baseBranch": "master",
  "updateInternalDependencies": "minor",
  "ignore": []
}
